                __                ___               ___
              ,' ,'              |   |              `. `.
            ,' ,'                |===|                `. `.
           / //                  |___|                  \\ \
          / //                   |___|                   \\ \
         ////                    |___|                    \\\\
        /  /                    ||   ||                    \  \
       /  /                     ||   ||                     \  \
      /| |                      ||   ||                      | |\
      || |                     | : o : |                     | ||
     |  \|                     | .===. |                     |/  |
     |  |\                    /| (___) |\                    /|  |
    |__||.\         .-.      // /,_._,\ \\      .-.         /.||__|
    |__||_.\        `-.\    //_ [:(|):] _\\    /.-'        /._||__|
 __/|  ||___`._____ ___\\__/___/_ ||| _\___\__//___ _____.'___||_ |\__
/___//__________/.-/_____________|.-.|_____________\-.\__________\\___\
\___\\__\\\_____\`-\__\\\\__\____|_-_|____/_//_____/-'/__//______//__//
   \|__||__..'         //  \ _ \__|||__/ _ /  \\         `..__||__|/
    |__||_./        .-'/    \\   |(|)|   //    \`-.        \..||__|
    |  || /         `-'      \\   \'/   //      `-'         \ ||  |
     |  |/                    \| :(-): |/                    \|  |
     |  /|                     | : o : |                     |\  |
      || |                     | |___| |                     | ||
      \| |                      ||   ||                      | |/
       \  \                     ||   ||                     /  /
        \  \                    ||___||                    /  /
         \\\\                    |___|                    ////
          \ \\                   |___|                   // /
           \ \\                  |   |                  // /
            `. `.                |===|                ,' ,'
              `._`.              |___|              ,'_,'


                                _     _
                       _____---' \_n_/ `---_____
                  _   /  ...  -----------  ...  \   _
                 ( )-' .  '::.\__  V  __/.::'  . `-( )
             _  .-'  ':::.  ____ \   / ____  .:::'  `-.  _
          ,-'.`'      __.--'    \ | | /    `--.__      `'.`-.
         / ''::..     \          || ||          /     ..::'' \
        /  .....  ,'\,'          ||_||          `./`.  .....  \
       / :::::' ,'               |   |               `. '::::: \
       | '::: ,'                 |   |                 `. :::' |
      _/  :: /                   |___|                   \ ::  \_
     (/     /                 ,-'     `-.                 \     \)
    _/      `.             ,-' ooo    oo `-.             ,'      \_
   |      /`./          ,-'\               /`-.          \.'\      |
  |  .:  /             /  \ \_ __.---.__ _/ /  \             \  :.  |
 .' :;: |           _ / o  \[ '  \   /  ` ]/    \ _           | ::: `.
 | ':: |           ( `-.   /      | |      \   ,-' )           | ::' |
 |: ': |            `-./  /       ___       \  \,-'            | :' :|
.':: ' |           |     / `-. .-' . `-. .-' \   o |           | ' ::`.
| ::. |           | o  ,| `-. / \`_|_'/ \ .-' |.  o |           | .:: |
 \    |_          |____|     | ` /   \ ' |     |____|          _|    /
 (|    _]         ]____[     |- ( (O) ) -|     ]____[         [_    |)
 /.:  |           |    |     | . \_ _/ . |     |    |           |  :.\
| :'  |           | o  `|-,-' \ /..|..\ / `-.-|'  o |           |. ': |
`.  :: |           | o   \ .-' `-.___.-' `-. /   o |           | ::  .'
 | .:: |          _.\     \|      | |      \/     /._          | ::. |
 |  ': |      _.-'   \ o   \      | |      /   o /   `-._      | :'  |
 `.  __ |__.-'_     _.\    /[_.__ | | __._]\  o /._     _`-.__| __  .'
  | \  \_.--''.' .-'   \  / /    `---'    \ \  /   `-. `.``--__/  / |
   |_\ __   ,',-'       `-./  o            \,-'       `-.`.   __ /_|
     \\ / .','             `-. oo .-. oo ,-'             `.`. \ //
     (\\  \ \                 `-._| |_,-'                 / /  //)
       \\  ) \                    (_)                    / (  //
       / \/   `.                                       ,'   \/ \
       \  .::. `.                                     ,' .:::  /
        \  ':::. `-./`.                         .'\.-' '''''' /
         \    '''     /_           _           _\    ::..    /
          `-.'::'       `--.______| |______.--'           ,-'
             `-'`-._   ..                   .: .:   _,-'`'
                  (_)-. ::. ''::::     ::::::  : ,-(_)
                      \_____   '' _ _    ' _____/
                            ---._/ u \_.---

Used with permission from:
Orbital Space Station (Terok Nor - Deep Space 9) - Joe Reiss
https://startrekasciiart.blogspot.co.uk/2011/05/deep-space-nine.html
